        #100595 +(49)- [X]

        <RANMA316> Japanese snacks rock
        <PooIsYummy> No they don't, japanese snacks suck.
        <PooIsYummy> They aren't treats, if you gave them to small
        children in north america they'd start to cry

