        #101611 +(409)- [X]

        * @Magn0lia catches TollsXP and gives him an atomic wedgie
        *  TollsXP 's nether regions emit radiation now
        *  ramoth4 gives TollsXP an iWedge
        *  TollsXP 's nether regions are now manufactured by apple
        *  ramoth4 gives TollsXP a WedgieXP
        *  TollsXP 's nether regions crash
        < TollsXP> or perhaps they hang ;)
        < TollsXP> but I certainly hope they don't freeze.

