        #102158 +(812)- [X]

        <Robzy> Lol, my dad just asked me "Would you rather take out
        an ugly girl, or a girl with a nice personality" and i replied
        "they are the same thing arent they?" and he goes "WOO! You
        are *MY* son" hehehehe

