        #103497 +(481)- [X]

        *|Truth| Thinks he should teach moe a lesson in "Fucking Fine
        Bitches 101"
        <moes_19> Truth - the finest bitch you've ever fucked sweats
        through its tongue.
        <moes_19> dipshit
        <Puedlfor> Ouch.

