        #103463 +(230)- [X]

        <TFreak> She was like, "are you enjoying this"
        <TFreak> And I was like thinking, dude, it feels like I'm
        fucking a bowl of spagetti-Os or something.

