        #105295 +(114)- [X]

        <DigitalChaos> ifi eightball shows up, tell him i'm lookin for
        him :p
        * Quits: DigitalChaos
        <acid88> do i look like aol instant messenger to you?

