        #106393 +(591)- [X]

        <evildoer> EXCERRENT
        <Kitsa> what are you babbling on about?
        <evildoer> EYE BOUGHT A NEW GITARE AND POLICE QUEST + SWAT
        COLACTIAN
        <Kitsa> lol
        <Kitsa> ah
        <evildoer> IT ES TEHS QUALETY GITIR FOR 5 DOLARS
        <Kitsa> flea market?
        <evildoer> yas
        <Kitsa> what did you barter, your spelling ability?

