        #10686 +(277)- [X]

        <astroDZ> i brought back marlbro 100s
        <astroDZ> a carton of them to smoke
        <astroDZ> i was told that were was enuff tar in 1 pack , to
        zip up all of freebsd and openbsd
        <astroDZ> anyone care to confirm?

