        #107257 +(842)- [X]

        <JakeD> My fingers are so fucking big that I'm all like
        "apjps0-3" just trying to type the word "hi"
        <Winter> wow, i bet you're a hit with the ladies.
        <JakeD> Yeah. "Hi, I'm Lisa." "apjps0-3" "....Fucking freak."
        <Winter> i was thinking IRL, but i suppose you're more clumsy
        there?
        <JakeD> That was an IRL example.

