        #107245 +(1)- [X]

        <WorkLord> nasa uses both systems
        <WorkLord> on martian landers
        <WorkLord> hehe
        <Luigi30> That's why all our stuff explodes
        <Luigi30> Especially shuttles
        <Luigi30> and Mars landers
        <WorkLord> ITS OK EVERYONE
        <WorkLord> HES BACK TO STUPID
        <WorkLord> armageddon averted
        <Luigi30> in Soviet Union, shuttles explode YOU!
        * Luigi30 runs around farting
        <Luigi30> Yay! I'm stupid!
        * Luigi30 explodes leaving a jagged black mark on the ground
        and some smoke
        <Dave2> YAY!!!!

