        #107855 +(384)- [X]

        AoD> Hey.  Would anyone here have paid money to kick Saddam
        out of power?
        <dubuto> Sure.
        <AoD> Pick a figure.
        <dubuto> I heard the Iraq thing cost 63odd billion.
        <AoD> What would it have been worth to you to get rid of him?
        <AoD> OUt of your pocket.
        <dubuto> Tough question.
        <AoD> It cost us 220 dollars each.
        <Meadow_Boxer> Ain't that some shit
        <AoD> Could have been worse.
        <AoD> Hell, at 220 dollars a pop, I'm game for another tyrant!
        <Gavok> How much to eliminate Whoopie Goldberg?

