        #109288 +(110)- [X]

        <s_> well
        <s_> i have button and string shorts
        <troop> I'll bet
        <s_> and its hell to go to the bathroom
        <s_> so i just lift my short leg up
        <s_> and pee out the side
        <troop> lol

