        #11073 +(610)- [X]

        <SpunOne> To The Taliban:
        <SpunOne> Give US Osama Bin Laden or we'll send your women to
        college.
        <nersh> To the US:
        <nersh> Leave us alone or we, the Taliban authorities would
        not hesitate to cut off America's supply of convenience store
        managers.

