        #11101 +(391)- [X]

        (+AeroBob): Ooh! New saying. "A Werthers Original is like anal
        sex..."
        (@Pixie|3554Y): They're both given by grandad? :O
        (+AeroBob): And, of course, both are best served hard.

