        #11291 +(850)- [X]

        <prok> heh they set up one of those temporary radar speed
        detector things yesterday, the ones that tell you how fast
        you're going
        <prok> with a big sign
        <prok> i did about 5 laps around it trying to get my car up to
        120
        <ShizCakes> You know it takes your picture if it starts
        blinking when you go past it, right?
        <prok> whoops

