        #115711 +(350)- [X]

        [mdtown] I wouldn't screw Dionne Warwick with a 10-meter
        extendopenis.
        [Jade Lotus] lol
        [mdtown] You've never heard the term extendopenis before?
        [mdtown] Well, welcome to a new level of human consciousness.
        [mdtown] "Go Go Gadget Cock!"

