        #115781 +(703)- [X]

        <noddy> oops, i banned tgo last night and forgot to remove it
        :/
        <Mortarion> yes you did
        <noddy> sorry dude :*(
        <The_Gifted_One> yeah, u whore :P
        <noddy> :/
        <Mortarion> am i gonna have to start checking the ban list
        when i get up every morning again?
        <noddy> again!?
        <Mortarion> yes, when i first gave you ops i'd have to check
        the banlist, usually you hadn't banned anyone in particular,
        you'd just filled it up with crap banmasks
        <Mortarion> i got up one morning and like 40 countries had
        been banned
        <The_Gifted_One> ROFL

