        #11658 +(102)- [X]

        <gigatron> fett
        <gigatron> anyone
        <gigatron> did u get jk2 yet
        <Hydrac7> I'm trying now
        <Hydrac7> on eDonkey but it's slow as hell
        <Hydrac7> expect me to code it faster than it will download

