        #119862 +(1017)- [X]

        <Bungie> You know porn has become an addiction when you are
        standing at the gas pump filling your bike and just before you
        top it off, you pull the hose out and spray it all over the
        tank.

