        #12118 +(102)- [X]

        <BurntAsh> i just know the shit has officially pissed me off
        beyond belief, ive had it up to here ^ with that place screwin
        with me
        <@tmbg> BurntAsh: three words:
        <@tmbg> Rocket Propelled Grenades

