        #121539 +(155)- [X]

        <Mr_Joshua> no, they take those silicone bags & put them in
        boxes with electronic equipment after writing "do not eat" all
        over them.
        <juvenile> ...
        <juvenile> Is that really a problem?

