        #127767 +(285)- [X]

        DraZ: Well, except Elmo
        DraZ: They even made a toy so that when you touched him, he
        had convulstions.
        NeoNess: I thought it was Orgasms
        NeoNess: THAT TICKLES

