        #12978 +(184)- [X]

        <Mosh76> TO ANYONE WHO KNOWS, HOW DO YOU STOP PEOPLE FROM
        SENDING YOU UNWANTED CHAT MESSAGES PROMOTING THERE PORN SITES?
        <Mosh76> Can someone tell me, or atleast tell me where to
        look?
        <eller> turn off your computer.

