        #13068 +(838)- [X]

        <Rjx> hmm.....goatse.cx is a better link
        <ganonboy> what section of the site are the ROMS in?
        <ganonboy> ? is it http://www.goatse.cx
        <ganonboy> ??
        <Rjx> yup
        <ganonboy> I dont see any N64 roms?
        <Rjx> what do you see?
        <ganonboy> A sick picture...
        <Rjx> click on it
        <Rjx> it's an imagemap
        <Rjx> click on his ass
        <ganonboy> you are lying
        <Rjx> did you try it?
        <ganonboy> yes
        <ganonboy> and nothing happens

