        #134610 +(302)- [X]

        <Urashima> I wonder if it's morally defensible to kill my
        neighbours for having a crappy taste in music and wanting to
        share it with me early in the morning... -_-

