        #13634 +(356)- [X]

        <me tarzan> someone please tell me the name of disk 2 in the
        curse
        <Huz> Tarzan: "Disk 2". You should be able to find it in the
        CD case you got when you bought the game. It's quite distinct,
        being the only other CD in there other than "Disk 1", which is
        also clearly labelled.

