        #136485 +(39)- [X]

        <Ralph`> u know teh way balck ppl talk?
        <Ralph`> how tehy say "thur" stead of "there" and "hur" stead
        of "hair"?
        <AXEiii> ...?
        <Ralph`> how do you think they say "her" as in... "her"?
        <DeAZNriDe> that bitch

