        #136816 +(673)- [X]

        <McRick> I was watching a program on TV, and someone with an
        English accent said 'And God bless all who sail in her" and
        the closed captioning read "[speaking in foreign language]".

