        #137913 +(503)- [X]

        <Ziller> I'm confused now
        <Ziller> am I me?
        <Ziller> [12:14] *** Ziller (ziller@bnc.host) Quit (Ping
        timeout)
        <_jackal> it's weird to see yourself quit from irc..
        <Ziller> like seeing your own death

