        #138597 +(224)- [X]

        «@ Darth_Angelus» thats what happens when you play avp2 too
        much
        « TheMaskedMan » You get hairy palms and go blind
        <JonR> no tmm
        <JonR> thats masturbation
        « TheMaskedMan » oh
        « TheMaskedMan » I confuse the two

