        #138594 +(123)- [X]

        <jcarle> BangBus is a standard that all us real men should
        measure ourselves up to.
        <jcarle> Well, maybe not, but it'd sure be cool to do the same
        thing and have it work for us for once.
        <chaind> lol

