        #139476 +(1310)- [X]

        <elitotaco> ok
        <elitotaco> ive got to go finish cleaning my room
        <elitotaco> or else i cant go camping
        <-- elitotaco has quit ()
        <asshat> OMG what a loser
        <asshat> gtg moms calling

