        #139475 +(122)- [X]

        <crazycaleb> cmon ham :( youre one of my favorites
        <Hamzifer> favorites?
        <Hamzifer> I dunno if i'm that 'important'.
        <crazycaleb> your name makes me think of hamtaro, that might
        be why
        <Hamzifer> ..your a sick little man.

