        #14014 +(1309)- [X]

        <Chelle> I'm gonna get something to eat - brb
        <GreenDragon> If they had an eating contest Chelle would win.
        <Slerte> Nah, I could eat her under the table any day.
        <Slerte> err

