        #14258 +(8262)- [X]

        <Sigurd> a sprite is anything not static
        <SRElysian> a sprite is a variable object
        <SRElysian> be it 2d or 3d
        <TorMuck> a sprite is a fucking soda
        <TorMuck> you god damn geekass bastards

