        #14316 +(69)- [X]

        BoobiePatutti> My mom is now telling me what Hobbits do with
        their feet at night.
        BoobiePatutti> Feeting.
        BoobiePatutti> Like fisting, only with their feet.

