        #14431 +(244)- [X]

        <antix> im bored
        <antix> i think i might go mod my toilet
        <Shady> what are you going to do? :S
        <antix> i think i might add some little flashin lights so i
        can read the paper in the dark...

