        #14589 +(261)- [X]

        <+CmOrHaIr> i can put a computer together and be prepareing
        the hdd in 20 min
        <+CmOrHaIr> or 15 even
        <+Jackworks> CmOrHaIr: if u do it in 15 i bet i can make it in
        14
        * ^Caliban makes sure to avoid any computers put together by
        Cmor or Jack

