        #14662 +(740)- [X]

        <Funk> I need money fast.
        <wildkarrdex> ok I have an idea
        <Funk> What?
        <wildkarrdex> well you send me £100 by cheque
        <Funk> And then?
        <wildkarrdex> and then what?

