        #146989 +(268)- [X]

        <Entriech> Theatre tickets are 91$ at the cheapest?
        <Entriech> Jesus Christ.
        <Entriech> What do they think I am, made of money?
        <Entriech> Cause even if I was, that's like sawing my dick in
        half for theatre tickets.

