        #147245 +(192)- [X]

        BuXtonZer0: i dunno why its such a good combo
        BuXtonZer0: the goldfish are crunchy and cheesy, while the
        coke is cold, refreshing, sweet, and breaks down the goldfish
        Benihana420: and your teeth
        Benihana420: at the same time
        BuXtonZer0: another plus

