        #147275 +(445)- [X]

        <{gy}IRONMAN> I don't think Arnold will be elected.
        <{gy}IRONMAN> Being a movie star isn't enough. We saw that
        with Reagan
        <Paralysis> Damn, and all this time I thought Reagan got
        elected

