        #149900 +(545)- [X]

        <gilm0re> I wanna make a movie called "I Rock Your Mom" and
        make it a story about a child who has to triumph over
        constipation and an erectile disfunction.
        <TJ32> ahh.. an autobiography

