        #1524 +(314)- [X]

        (lo^fi) ok who thinks the "burning schoolhouse" that comes in
        boxes of fireworks sux ass
        (tiko) bill: I do
        (dawly) me too :)
        (superdave) bill you just have to soak it with gas first

