        #15469 +(16)- [X]

        <mota> I WAS RIGHT
        <mota> they have her bent over the tennis net
        <mota> and are shoving rackets up her cunt
        <mota> and tennis balls up her ass

