        #1562 +(1496)- [X]

        *** C2H5OH has joined #finalfight
        <MightyQuinn> greetings, Mr. Ethanol
        <Rico> Mmm... caffeine.
        <Squizzle> Wow, one of you failed organic chem.

