        #15647 +(451)- [X]

        <CaMR0N> why does everyone call me cumron?
        <drunkers> probably and honest mistake
        <CaMR0N> but everyone?
        <drunkers> did you tell them you were gay?
        <CaMR0N> yes cause im honest with everyone
        <drunkers> maybe its not an honest mistake

