        #15697 +(959)- [X]

        <EFudd> HAHAHAAHH
        <EFudd> Subject: Req For Winframe Account
        <EFudd> Hi Jason,
        <EFudd> Can U pl... Create this account Immediatly.
        <EFudd> User Id : crapolla
        <EFudd> Password :crapolla
        <EFudd> Other Info
        <EFudd> 1) User Full Name:Claudia Rapolla

