        #159746 +(693)- [X]

        <Zeion> mints must be very profitable
        <Palmetto> what are you talking about?
        <Palmetto> mints are government institutions
        <Palmetto> they don't make any money
        <Zeion> yes they do

