        #16098 +(293)- [X]

        <madlocust> notmany women have me so into them that I can see
        them as a great friend
        <madlocust> and in her case...my best friend
        <|ced> so write a poem, fag

