        #162475 +(348)- [X]

        <kurai> lol this is the best warning ever looklook:
        <kurai> This is your brain -> O
        <kurai> This is your brain on drugs -> o
        <kurai> This is your butthole -> o
        <kurai> This is your butthole in prison -> O

