        #164609 +(438)- [X]

        <Legendre> I got two spams today - one for weight loss, and
        one for penile enlargement. I relplied to both, with cc: and
        asked if they could work something out to transfer my extra
        weight to my johnson.

