        #1648 +(668)- [X]

        IoStream 14: LOL
        IoStream 14: radio
        IoStream 14: "some dude was having sex with this girl and she
        said stop stop i'm about to orgasm...he asked why stop? and
        she said i'm saving it for when i get married"

