        #16592 +(15)- [X]

        <RtWh0> garlic ok you and me right here right now
        * GaRlic_iv puts up his dukes
        * GaRlic_iv ... wait.. i got fuckin no dukes
        * RtWh0 pulls out ding dong and swings it around like a whip
        and cuts Garlics head off
        <RtWh0> then some guy yells FATALITY
        <RtWh0> in a mean vioce
        <GaRlic_iv> RtWh0 pulls out ding dong
        <GaRlic_iv> i hope thats not your dogs name dude

