        #16708 +(535)- [X]

        <Vile-> i need to take a shit
        <Vile-> im going to go in my cats litter box
        <Vile-> and my mom will go up stairs
        <Vile-> and see a huge long shit in the litter box
        <Vile-> and be like wtf

