        #16760 +(912)- [X]

        <theTrick> Canada volunteered 10 Battleships, 4 Jet Fighters,
        and 200 Soldiers to the U.S. anti-terrorism cause, after the
        exchange rate, that came up to 4 canoes, 2 flying squirrels
        and 3 canadian mounties

