        #168917 +(533)- [X]

        Kirby: So like this one time I was fucking this dude in the
        ass and then I threw up on his back.
        ZAn3Yt: I didn't now you were gay Kirby...
        katchup: He isn't, that was a shakespeare quote.

