        #16988 +(137)- [X]

        <Justice-P-> africa totally ruins that picture; the stripes
        make it stand out too much
        <Icehawk|work> j: that's south america and north america
        <Justice-P-> whatever

