        #171456 +(35)- [X]

        <@chupa> i get my cable on the 19th which is gay
        <@chupa> i don't know what i'm gonna do
        <@chupa> what to d/l first
        <@[TrIpLe]> movies
        <@[TrIpLe]> porn movies
        <@[TrIpLe]> full length porn movies

