        #175675 +(1124)- [X]

        <nirgleNap> lol, i just put on Najma as i'm sitting here
        wiring up a circuit board
        <nirgleNap> i realized how "odd" this might look.. having arab
        music playing as i'm soldering red and green wires to a board
        full of ICs

