        #177475 +(343)- [X]

        <tuckt26> MD = farm land, DC = Gangs and concrete, VA = Wine,
        music, and the finer qualities of life
        <Calisa> And what would OH stand for?
        <aeonite> When you put KY in your VA you go OH.

