        #17863 +(425)- [X]

        <WntBgAsLg> RU people here every night?
        <mthw> no sorry this is a 1 time thing
        <mthw> channel breaks up by tomorrow
        <mthw> we tour irc, go chan to chan

