        #179566 +(1260)- [X]

        <NiM> I went to church with my friends
        <NiM> and they had all the alter boys being commissioned or
        whatever its called
        <NiM> and we pours salt and viagra in the wine
        <OttoDestruct> LOL
        <NiM> And like 4 of the alterboys spat out the wine
        <CF|Okra> hahahah
        <NiM> and the priest was like OMFG U SINNERS
        <NiM> thats the blood of christ!
        <NiM> And the ones that didn't spit it out where walking
        around in their fucking robs with boners
        <NiM> it was the funniest shit ever
        <NiM> We where kicked out
        <NiM> of the church

