        #18254 +(188)- [X]

        <RtWhO> oh shit the shower hurt me......I got in turned the
        water on, the water pressure is amazing, well anyways it
        knocked me down....I hurt my ass bone

