        #182743 +(921)- [X]

        * larra has joined #Hentai
        <larra> u people are terrible!
        <larra> my brother attacked our aunt becuae of hentai!
        * larra has left #Hentai

