        #1833 +(648)- [X]

        <fileface> can someone help me with my IDENTIFY, i forgot my
        pass
        <fileface> any opers alive?
        <cd> me
        <cd> type: /quit i am gay
        <fileface> Y?
        <cd> cos it will fix your password
        <cd> it will set it to 'iamanidiot'
        »»  quits fileface (Thug4life@c47s127h6.upc.chello.no) (Quit:
        i am gay «~{Polaris IRC}~» v2.04)

