        #18493 +(220)- [X]

        <nein> what unix o.s. should i install on a 486 with 7megs
        ram?
        <nein> laptop
        <A-KO> Trashcan with kernel I.7.5u-ck.5
        <A-KO> :)
        <nein> is that a free download?
        <nein> heheh
        <nein> will it run aol?

