        #185611 +(331)- [X]

        <whitcomb> there's this thing on the news about what to do if
        someone cheats on you
        <whitcomb> the simple answer, whether this is a relationship
        or a video game, is to kill them

