        #187930 +(630)- [X]

        Flint62704: Maybe someone should invent floating point D&D
        Flint62704: Roll a d[1,6]
        Flint62704: I got 4.4546347578554!
        Flint62704: Sorry, he still has 0.000002425 hp left
        Flint62704: You lose

