        #189 +(219)- [X]

        <chernobyl> flash isn't going down. flash is putting java out
        of business
        <chernobyl> how long has XML been around, and no one's moving
        to it

