        #189165 +(210)- [X]

        <Yoshio> OMG
        <Yoshio> MY FIREWALL
        <Yoshio> IS BLOCKING
        <Yoshio> PORN!!
        <`Bloodlust> lmao
        <Yoshio> ahh much better..
        <Yoshio> although i am looking at tubgirl.
        <Yoshio> ewww.
        <Yoshio> that so cant be real

