        #189225 +(762)- [X]

        <@EFA|Kamikaze> Thou shalt hoist oneself upon thy ship of good
        sportsman, For thy days of "GG" and "NICE Shot" hath past,
        "GG" shalt be "BS" thy "Nice Shot" shalt be "AIMBOT!!1!1". -
        Teh Book of Noob Chapter 8:12

