        #195212 +(941)- [X]

        Daniel: heh i met this chick online who had laser eye surgery
        today, she lives in California
        Nick: and?
        Daniel: and there was also an earthquake in california today

