        #1985 +(390)- [X]

        (|{KomienD) Who has a crack for Spider-Man?
        (paper_bag) who has english lessons in an hour?
        (vital|wrk) who has to work right now
        (paper_bag) who let the dogs out
        (nexxai) Who is getting pussy tonight?
        (paper_bag) im getting hand
        (nexxai) [paper_bag]: jerking yourself off doesn't count
        (paper_bag) blast :(
        (paper_bag) guess i can give back grandma her lotion, i wont
        be getting any l33t points tonight

