        #2015 +(520)- [X]

        <Digested> cool :)
        <Digested> you have a gf that knows how to download mp3s
        <madog> ya
        <madog> and email
        <qvr> That's nothing.. I had this goldfish....

