        #2018 +(306)- [X]

        <MadHatter> I wish I could get a job as a stunt penis
        <MadHatter> like for porno movies
        <MadHatter> I don't look like a pornstar(not that I'm ugly, I
        just don't have that look), but I have a porno penis

