        #203911 +(1073)- [X]

        <DrBacchus> fajita: RFC 2795
        <fajita> DrBacchus: excuse me?
        <DrBacchus> fajita: You're supposed to give me a link.
        <fajita> DrBacchus: i'm not following you...
        <DrBacchus> dumb bot
        <fajita> Stupid human

