        #2048 +(319)- [X]

        <Birdzii> i've got this fucked rash all over my body
        <Morbii> heh
        * Slander takes a step back from birdsigh
        <Birdzii> heh
        <Birdzii> sore throat + rash
        <Morbii maybe you're allergic to masturbation
        <Morbii> jkjk ;P
        <Birdzii> I would have been dead long ago then

