        #217123 +(628)- [X]

        <Yak|Sleep> One day
        <Yak|Sleep> The stupidity of the world will implode on itself
        <Yak|Sleep> Taking the universe with it
        <Trufant> i shall live on mars by then
        <WhiTey-FU> can't wait.
        <Yak|Sleep> Congratulations
        <Yak|Sleep> You officially are one of those to contribute to
        the implosion

