        #217388 +(783)- [X]

        >>> join/#php: jbc [jbc@p129-tnt5.syd.ihug.com.au]
        < haazard> do you know php?
        < jbc> no, this is a drugs channel
        < jbc> we used to be #pcp
        < jbc> but we all forgot how to spell it

