        #217416 +(769)- [X]

        <ShatnersBassoon>Ouch.  Just been to the toilet for a poo, and
        I decided to do a bit of a dangleberry-tidy.  Suffice it to
        say I'm now several bumhairs lighter.
        <Kenny>That's probably more information that I needed.
        <Kenny>"than"
        <Kenny>fuck

