        #2204 +(311)- [X]

        <DAL9000> you've never called me dustin before
        <DAL9000> you sick?
        <Guilty> I bet you thought you had a decent name until Saved
        by the Bell's Dustin Diamond came "screeching" in

