        #221002 +(264)- [X]

        <TKD-Azmodeux> I'm embezzling all the clan funds into jerkin's
        hand lotion.
        <TKD-Strider> Why do you need that?
        <TKD-Azmodeux> ...Yes...why indeed...

