        #22107 +(199)- [X]

        <Pigs> I used to go out all the time, I just go to have a few
        beers and look at girls... that's not gay
        <supreemball> unless you're comparing outfits with the girls

