        #2213 +(621)- [X]

        <purem> my sk00l had an anthrax scare today
        <purem> it ended up being some poor guys coke :(
        <purem> he's prolly gonna get expelled :/
        <purem> or at least kicked outta the faculty
        <purem> and then executed
        <Morris> haha
        <Morris> They mistook some coccaine for anthrax?
        <purem> yeah
        <Morris> hehe
        <Morris> Poor guy
        <Morris> All he wanted, was to do his lines.
        <purem> ya
        <purem> it's bad enough that he lost his coke, but he had to
        go and quarintine like 600 people into that building for like
        4 hours
        <purem> heh
        <Morris> :/
        <purem> rough day
        <Morris> Coke heads around the world now lable their coke with
        "Not Anthrax" stickers.
        <purem> "COCAINE INSIDE"

