        #22178 +(12)- [X]

        <sluggy> i need a pen
        <cyan> dont you have one in your pants?
        <Stooert> that sucked
        <cyan> im bored
        <sluggy> dont you have a bored in your pants?
        <sluggy> AHAHAHAH

