        #221937 +(600)- [X]

        <jdm> i just accidently urinated on my face
        <@Static> did you take a picture?
        <jdm> no
        <jdm> let go of my wang to catch the toilet seat, it began to
        fall
        <jdm> pissed all over the back of the toilet then it swung up
        and hit me in the face like a fire hose

