        #224911 +(705)- [X]

        <spyforthemoon> It's a bad sign when you walk into a room with
        a high school senior girl talking about 'prom' and think
        "what's she doing with Programable Read Only Memory?"

