        #226987 +(252)- [X]

        <Jackryan2000guy> You know you've played too much soul caliber
        when you get the sudden urge in the middle of a calculus test
        to stand up, wave your fist and yell, "Souls! Come to me!"

