        #22827 +(317)- [X]

        *** Joins: bowswer (~myob@ZiRC-52337.ny5030.east.verizon.net)
        [20:38] * Freshbrew jumps over bowswers head, and pulls the
        key on the other side of the bridge and laughes manically as
        he watches bowswer fall into the 8-bit lava

