        #228303 +(244)- [X]

        <epoch--> crap, getting my license renewed while baked was a
        bad idea
        <epoch--> every time they take my picture for it, i end up
        looking like a criminal.. this time i look like a stoned
        criminal

