        #22954 +(1584)- [X]

        <Elly_May>  my little sister just asked me why my hair was
        tangled
        <Elly_May>  i told her it was because my boyfriend came all
        over it when i was giving him a blow job
        <Elly_May>  at which point my father admitted he could hear
        me....

