        #23228 +(139)- [X]

        <pinepusher> Anyone know a good place where someone with no
        credit can get a loan???
        <xENo> yeah, but the rates are high
        <xENo> and if you miss a payment, they repo your life
        <pinepusher> what are the rates like?
        <pinepusher> any idea?

