        #23288 +(338)- [X]

        (Klarth) The faggotry express is RIGHT ON TIME
        *** UltraMoogleMan
        (mega64man@212.knoxville-04rh16rt-ca.dial-access.att.net) has
        joined #Trivia
        (L0ne_W0lf) ...
        (L0ne_W0lf) You were RIGHT
        (tal) right on time indeed

