        #237965 +(280)- [X]

        (+^Bunny) without the sex
        (@Squiggle) the sex doesnt matter
        (+^Bunny) like prison mates :)
        (+^Bunny) lol j/k
        (@Squiggle) I would SO much rather have someone hold me and
        play with my hair and snuggle me while I sleep than have sex.
        (@Squiggle) sex is irrelevant to me most times.
        (+^Bunny) i think a lot of women would ;)
        (@Squiggle) Besides, my washing machine has a great spin
        cycle.

