        #238 +(523)- [X]

        [thinkmad] does anyone know a good car audio site
        (McMoo) www.40plus50plus.com
        [thinkmad] you fucking bastard moo
        [kisama] mcmoo: i have member logins to that site

