        #238517 +(473)- [X]

        [SB|Ranter] I played the Sims for 1 hour and realised I was
        making such an effort to clean the dishes when there's a whole
        stack of them beside the sink in real life
        [SB|Ranter] so I deleted the fucker

