        #238718 +(284)- [X]

        <ShajJee> i am muslim and i never belive on sex
        <jackfig> oh, that's good
        <Dormir> congrats
        <ShajJee> and a muslim can never do sex with anyone
        <jackfig> ummm, then why are there so  many of them?

