        #239439 +(266)- [X]

        (+{-ReV-}) http://www.eden.rutgers.edu/~husainm/Animated/
        milkit.gif thats stupid the glass isn't even filling up how am
        i supposed to believe it then
        (jizzypop_) hehe
        (jizzypop_) you just have to have faith
        (+{-ReV-}) like the song
        (@J_bomb) rev it's a new GIF version
        (@J_bomb) if you wait long enough, they'll fill up
        (@J_bomb) it has extra frames
        (+{-ReV-}) ok
        (@J_bomb) just sit and stare
        (+{-ReV-}) i'll put my finger on the screen to mark the
        progression of the milk

        20 minutes later...

        (+{-ReV-}) ok dammit
        (+{-ReV-}) i fucking quit
        (+{-ReV-}) screw the milk

