        #2400 +(536)- [X]

        (BrntToast) zeon_64: i chat with ppl in austrlia and they are
        a day ahead of us, i keep askin em to watch the 649 draw and
        tell me the numbers but they say it dont work that way :(

