        #241368 +(515)- [X]

        <Continuity> EVERY TIME YOU LEECH A GAME, GOD KILLS AN RIIA
        EMPLOYEE
        <east> that wouldn't work
        <east> the RIAA would've been eradicated a long time ago
        <Curry> they just throw a specimen back to the spawning vats
        <Curry> *spoof* instant employees
        <Outrider> LOL RIAA RUSH KEKEKEKEKEKEKE ^_________________^

