        #2415 +(388)- [X]

        <Dude> did ya hear poland bought 5000 septic tanks?
        <DatDawg> why?
        <Dude> as soon as the figure out how to drive them there
        invading russia

