        #25027 +(365)- [X]

        <[avon]> oh man
        <[av0n]> even vc++6 rocks
        <[av0n]> after install
        <[av0n]> do you want to reboot now?
        <[av0n]> no
        <[av0n]> the system must be rebooted click ok to reboot
        <[av0n]> and i bet you anything when i alt+f4 the box
        <[av0n]> i'm gonna reboot
        <[av0n]> just watch.
        *** Quits: [av0n] (justin@mask-2556.swbell.net) (Connection
        reset by peer)

