        #25026 +(458)- [X]

        <Cobain4ever 87> FUCK YOU
        <Falaxor> pissing you off is like trying to pick up a fat,
        ugly women at a bar. It's too easy, and when you suceed, its
        no fun at all.

