        #262679 +(133)- [X]

        <FQ|Dawg> ok so i was messing with one of my schools video
        cameras
        <FQ|Dawg> and i recorded my dick, and i cant erase it off the
        tape
        <FQ|Dawg> what should i do
        <%CLV> tell them you were doing a study on the effects of
        amateur porn on modern society

