        #26283 +(249)- [X]

        <Masa> I never had a brother I could fight with
        <Masa> very unsatisfactory
        <Kevyn> I punched my sister once. Heh.
        <Kevyn> I was too young to know better.
        <Masa> and I couldnt hit my sister too much
        <Kevyn> Pow, right in the nose.
        <waffle> you're quite the enlightened male
        <Kevyn> Eh. I love my family and that's how I show it.
        <Kevyn> I can't wait to have kids.
        <Kevyn> I'm gonna beat their fucking asses.

