        #266572 +(1108)- [X]

        <Rjx> they really need to make formatting a laptop easier, for
        lazy people like me
        <Rjx> they could make them like etch-a-sketches
        <Rjx> you just turn them upside down and shake them
        <Rjx> and BAM, new install

