        #27628 +(204)- [X]

        <Guilty> If I ever smoked crack I'd be sure to put aside a few
        dollars per robbery for hygenic purposes
        <Guilty> Like for every DVD player I jacked, buy a bottle of
        shampoo
        <Guilty> Maybe some q-tips

