        #281967 +(1553)- [X]

        <|Chris> i know i'm killing more quotes than i should
        <|Chris> just due to the fact that i'm not finding a whole lot
        of things funny due to my current situation in life
        <|Chris> i'm so sad...she took the gamecube man
        <|Chris> the fucking gamecube

