        #2949 +(287)- [X]

        <al-x> pam anderson had implants
        <al-x> had them taken out
        <al-x> just had them put back in
        <al-x> she proly has zippers
        <al-x> under her arms
        <al-x> or somethign

