        #29666 +(720)- [X]

        <eX|NYC> wtf my mom tells this lady to come over then she
        leaves 10 secs b4 she comes so im stuck here with this lady
        like uhh dude i dont know wtf she went leave me alone let me
        play my computer games >_<
        <PJ> its called a baby sitter.

