        #298011 +(295)- [X]

        <[Crunt]> dammit i thought the rocky horror picture show was
        on
        <[Crunt]> but nooooooooooooooooo
        <ha|cyon> it was just family home videos all along?

