        #3026 +(80)- [X]

        <kisama> you know what's hilarious
        <kisama> leaving your fly unbuttoned
        <kisama> then walking around all furtive
        <DooD> ...
        <kisama> hhahaha
        <kisama> i did that today
        <kisama> you'd think ppl would notice
        <kisama> but i was in art all day
        <kisama> with my zipper down
        <kisama> and a long shirt
        <DooD> they'd have to look at your wang area =P
        <kisama> are they afraid of sensory overload or what?

