        #310385 +(857)- [X]

        <peebles> how about a new low CARB diet
        <peebles> No Cheney
        <peebles> No Ashcroft
        <peebles> No Rumsfeld
        <peebles> No Bush
        <peebles> And forget about the Rice.

