        #3283 +(245)- [X]

        <JibberJim> Your bios doesn't like your 5 1/4" drive roded?
        <roded> vmware doesn't actaully
        <Jumper_> yeah, downgrade to the 8" again
        * Jumper_ had a dual 8" drive - rocked
        <JibberJim> 8" is a downgrade? - man you must be liked by the
        ladies.

