        #3320 +(2062)- [X]

        <spd-dmn> lee: hows the baybee
        <Virtualee> spd-dmn She's great!  Growing so fast!
        <spd-dmn> aw
        <spd-dmn> got any pics?
        <spazzer> has she sprouted appendages yet?
        <KK-> lol
        <spazzer> don't babies grow like potatos?
        <spd-dmn> ahaha
        <spd-dmn> spazzer you're on crack, buddy
        <spazzer> you mean they DON'T?
        <spazzer> they come out with arms and legs?
        <spazzer> shit
        <spazzer> i have a whole new respect for women

