        #33653 +(369)- [X]

        <Marecki> Ahh. Sorry. Thought you made "sickening" as in
        "making you want to puke"
        <Dr_Octogon> lol
        <noid|drunk> Well, it does make you want to puke.
        <noid|drunk> And cry, and laugh.
        <noid|drunk> And shit.
        <Dr_Octogon> and shit?
        <noid|drunk> And shit = and stuff
        <noid|drunk> Not "HUUUUUUUUUUHNNNNNNNNGH"

