        #33784 +(184)- [X]

        *** Joins: ph30tu5
        (~ihateyoug@user-0cal658.cable.mindspring.com)
        *** Joins: ReadingZu (~RZ@user-0cal658.cable.mindspring.com)
        <ReadingZu> oh... wait
        <ReadingZu> hey wait
        <ReadingZu> i can be an ass all i want and you cant ban me
        without banning her
        <ReadingZu> HAHHADFH@Q$%&
        <ReadingZu> OEND
        *** c-rOCK sets mode: +b *!
        ~RZ@user-0cal658.cable.mindspring.com
        *** ReadingZu was kicked by c-rOCK (banned.)

