        #33838 +(309)- [X]

        <@Jugernaut> bah this shirt is full of holes
        <@temptah> eat less corn
        <@temptah> and more fiber
        <@temptah> oh
        <@temptah> I thought you said "shit"

