        #3388 +(623)- [X]

        <Ponder> He found a better job, got a new gf.
        <Ponder> All because he stopped smoking
        <tragic> i need to start smoking, so then i can quit and all
        sorta good shit will happen to me

