        #33935 +(161)- [X]

        <qrg> Ajchez: i think they call those girls bbw
        <Ajchez> bbw????
        <qrg> big beautiful women
        <Ajchez> i have a weight limit
        <krezt> whats your limit?
        <krezt> i can do anything i can lift
        <krezt> if they put out my back they aint getting no kak

