        #34087 +(238)- [X]

        <Didjital> we got to play mario is missing in history once
        <Threeboy> haah.
        <Threeboy> that's more like torture 101.
        <Didjital> taht game was hard as hell
        <Threeboy> "mario is missing" is ass.
        <Didjital> mario is missing = win
        <Threeboy> luigi had 2 video games. and he fucking dropped the
        ball twice.
        <Threeboy> I like rooting for the underdog and all, but FUCK.
        FACE IT YOUR FATTER SHORTER BROTHER IS BETTER.

