        #34216 +(35)- [X]

        * Carson_Marl looks at the remnants of the lightsaber on the
        floor.
        <Kalista_Frenta> "I wish those damn nuthouse doctors would
        hurry up and show. I'm ready to get out of her."
        <Kalista_Frenta> ((heheheheh. her = here))
        <Carson_Marl> ((Yeah, SURE it does!))

