        #34228 +(209)- [X]

        <D3KK0N> if a woman broke in you had a little thing with and
        left you some panties and a card....you wouldnt be happy?
        <bluewolf> er for a start i'm female

