        #34304 +(92)- [X]

        * Nanuq copies the output to his hand
        <Nanuq> oooh, even better
        * Nanuq puts his hand in the printer and pipes to lpr
        <Nanuq> OWWW, OWWW, OWWW!
        <Nanuq> Okay, done.
        <Tron> Nanuq: Stupid! You should have used the inkjet!
        <Tron> *fwap*

