        #34459 +(123)- [X]

        <j03bl0w> Is it wrong to touch yourself when things like Miss
        Teen USA are on?
        <|SeveN|> j03bl0w: no.
        * j03bl0w touches himself in places with lots of nerve endings

