        #346467 +(1813)- [X]

        <sideburns> they opened a restaurant a few blocks away
        <sideburns> it's a lesbian restaurant
        <UncleGivey> HAHAHAHA
        <sideburns> err... lebanese
        <UncleGivey> "Hey honey, there's that new restaurant down the
        street... feel like eating out?"

