        #34769 +(218)- [X]

        <MindRape> don't mind me, i'm divorced =)
        <MindRape> still going thru the damn thing
        <MindRape> she's sueing me for my penis
        <Deeply> suing you for your penis?
        <MindRape> yea, its bigger than hers :>

