        #34966 +(279)- [X]

        <Sede> That's a big word.. does it mean 'blowjob'?
        <Potato> I thought that was "affection".
        <Nyphur> Affection, Blowjob, same thing, isn't it?
        <Potato> That's how I was raised.

