        #350568 +(1222)- [X]

        <houhou> i havnt had sex in a month now :(
        <StopNdroP> I grew a nut tree in my backyard and now it's a
        prize winning plant
        <Yuri> wow your nuts must be huge
        <Quake> please tell me youre talkin about stopndrop

