        #354 +(1600)- [X]

        *** Penfold has quit IRC (Excess Flood)
        *** Penfold (abullard@missing.linc.ox.ac.uk) has joined #keble
        <Penfold> Excess flood my arse
        <Ganesh> no thanks

