        #3618 +(576)- [X]

        <establish> 16/f/virgin/36c/firmtits/5'9/125 pounds/I like
        guys who are short, overweight, not good looking, and who are
        really into computers and video games/plus I have genital
        warts

