        #3623 +(184)- [X]

        <fai|ure> pearl must have some cavern pussy if she's wanting
        it in the ass everytime
        <pearl> i didnt say everytime
        <pearl> occasionally is nice :)
        <pearl> jd has the nicest thing to say about me usually
        <fai|ure> i'm that sensitive type of guy
        <fai|ure> ya' know what i'm sayin'
        <Ginger> cavernous is not good
        <Ginger> cept
        <Ginger> for the esophageal capacity

