        #36342 +(38)- [X]

        <l_oke> im sure velocity sucks. Not that i use it, but most
        people that plugs their solutions all the time tend to be
        morons, and we all know what kind of code morons write.

