        #36476 +(501)- [X]

        <trekkie47> u know how my bros comp is the same room as mine
        right ?
        <jbean> yeah
        <trekkie47> well my bro was dling pr0n on his computer
        <trekkie47> and he just fuckin left the downloads to go and
        went to a friends
        <trekkie47> then dad went on his computer
        <jbean> and then
        <trekkie47> i dunno
        <trekkie47> he told me to leave
        <jbean> hahahaha

