        #367 +(803)- [X]

        <brojek> The A-Team? it goes like this: they have a "job", get
        into trouble, get cornered, in that corner they build a tank
        and then escape :)
        <toitle> the best bit was when they made the tank out of left
        overs from a broken vacuum cleaner

