        #370 +(1794)- [X]

        <Beeth>  Progress (n.):  The process through which the
        Internet has evolved from smart
        <Beeth>  people in front of dumb terminals to dumb people in
        front of smart terminals.

