        #37017 +(394)- [X]

        <burrito> lol ya
        <burrito> who the hell is burrito?
        <burrito> oh shit
        <burrito> nm
        <veet|z0r> LOL
        <BBQ_69> fool
        <veet|z0r> You suck :D

