        #3705 +(201)- [X]

        <orge> !speedtest
        <orge> (_*_) @ 599Mhz
        <claws03> at 907Mhz
        <hydro-> niggers picking cotton @ 998Mhz
        <jestuh> s00p3r 4thl0n runn1ng 4t 1696Mhz
        <bos-> >=[ @ 341Mhz
        <bradley> jerkin it @ 306Mhz
        <DigDug> 207.4 millions of cycles per second :-o

