        #374404 +(1492)- [X]

        <EggdropBot> {MoxQuizz} The question no. 24 by OllyPomm is:
        <EggdropBot> (Sport) What sport do the following terms belong
        to - "Toucher & Dead Length"?
        <liz> ouch, my boobs hurt
        <EggdropBot> {MoxQuizz} liz solved after 5 seconds and now has
        <5> points (+1) on rank 3.
        <EggdropBot> The answer was: Lawn or Indoor Bowls
        <Reuven> Say what?
        <liz> what?
        <Ken> whaaaat?
        <Ken> how...did...she...do...that?

