        #37440 +(151)- [X]

        <Tiio> Dude, I don't think I've even SEEN 15.6 gigs of pr0n.
        <Tiio> I mean
        <Tiio> in all my wanking.
        <Dogmeat> (which is quite a bit)
        <Tiio> well
        <Tiio> I don't get to watch much movies so -_-;
        <Tiio> usually have to stick to .txts, bleh.

