        #384495 +(436)- [X]

        <Mansion_Maniac> I just realized something
        <TheEnforcer> ??
        <Phone> ??
        <Mansion_Maniac> if you renamed "humans" as "Terrans";
        "aliens" as "Zerg"; and "Predators" as "Protoss", the new
        Aliens vs. Predator movie would totally be a movie adaptation
        of StarCraft.

