        #3848 +(206)- [X]

        <zedebsky> Coughing sucks, but does get you higher :)
        <tonic4> zedebsky, coughing opens up parts of your lungs that
        usually don't get in air, in the case of smoking, smoke, so
        thats how it gets you higher
        <latez> lol
        <latez> we've got a medic

