        #385125 +(2218)- [X]

        <chibo> Found something pretty rad. $5 FBI hat purchased at
        HOPE. Blew past a cop at 85. Looked over at the cop, he read
        the hat, saluted, and retargeted someone else with the radar
        gun. Not too bad for $5. Highly recommended.

