        #38722 +(782)- [X]

        *** Alluro95-School (d@station.sdccd.cc.ca.us) Quit (Quit:
        typos sick)
        *** Alluro95-School (d@station.sdccd.cc.ca.us) has joined #
        vgmusic
        <Alluro95-School> I mean
        *** Alluro95-School (d@station.sdccd.cc.ca.us) Quit (Quit:
        typos suck)

