        #3908 +(868)- [X]

        *** Jei-Dijitaru has quit IRC (Do we really need warnings that
        the lead in paint will kill you? Keep in mind that these
        people have already made a conscious decision to CONSUME
        PAINT.)

