        #393241 +(584)- [X]

        <Matt-san> Over the hill women have experience. :)
        <Kataclysm> And saggy boobz
        <Matt-san> They flop back and forth like mudflaps.
        <Kataclysm> Thank you for the lovely visual, Matt.
        <Raiden> Its like when you go to the nursing home
        <Raiden> and say "SHOW ME YOUR TITS"
        <Kataclysm> I'm going to kill you now. Please don't take it
        personal.
        <Raiden> and they take off their pants

