        #39503 +(45)- [X]

        <Targen> you know, I had a dream with some soldat in it
        <Targen> and also that sniper guy
        <Targen> and also some stuff about a girl
        <Targen> and also these weird people whose anuses were all the
        way up behind their chest
        <Targen> (seriously)
        <Maxrpg> sounds like a music video!

