        #40443 +(122)- [X]

        <mdl> i think nec uses aperture grille tubes
        <mdl> and mitsu
        <mdl> yeah
        <AlmtyBob> there ar ea few I believe
        <RevMarcus> afaik nec and mitsumi both do invar shadow mask
        <AlmtyBob> if I wasn't masturbating I'd look on the back of my
        monitor and tell you

