        #40532 +(304)- [X]

        *** cuteone4 has joined #photoshop
        (cuteone4): has anybody in here helped me with a graphic in
        the last few days?
        (cln): you can be damn sure i havnt
        (cuteone4): UP YOURS CLN
        (cuteone4): i am trying to learn this program
        (cuteone4): stupid layers.
        (cln): wait..
        (cln): youve been in this chan for what? 2 years?
        (cln): and you don't know jack shit about photoshop?
        (cuteone4): i just got the program recently

