        #40577 +(82)- [X]

        <Suparmono> its a dilemma, i dont ask girls out. No, there is
        only one way to go about this
        <tynka> oerr.. and what's that?
        <Suparmono> NONCONCENTUAL INTERCOURSE
        <Suparmono> except spell consent with an S

