        #40593 +(234)- [X]

        <Poutremos> Win98 / Win98se CD
        <Suparmono> i located dad's copy
        <Suparmono> so you want me to bring it tomorrow?
        <Suparmono> or want me to copy it on to 340 5-1/4" floppy
        disks?

