        #40815 +(899)- [X]

        <PLUR4Life> COUCH
        <Evil_Couch> I swear, I'm going to drown you
        <Evil_Couch> err
        <PLUR4Life> Scuse me?
        <Evil_Couch> I mean, hi, how are you doing?
        <Evil_Couch> you want to go swimming?

