        #408285 +(457)- [X]

        <Javin> *I* could put together a flash site that quotes 1000
        imaginary people saying they saw a giant space monkey come and
        throw flammable poo at the pentagon.  Doesn't make it true.

