        #4105 +(558)- [X]

        * dodgearse learns to need how to say somthing before thinking
        of it
        [dodgearse] wow... that dont sound right
        * dodgearse needs to learn to think about what hes going to
        say before saying it...

