        #41555 +(2)- [X]

        --- Received a CTCP NIGGERNIGGERNIGGER from amoeba (to #
        somethingawful)
        <Hee-La> score
        <SteamedHams> i was about to nigger
        <Hee-La> never hesitate when niggering
        <SteamedHams> but it might blackfire

