        #416188 +(351)- [X]

        <tmb^work> even c64 can connect to the internet
        <tmb^work> irc + web
        <tmb^work> what do you need more?
        <garg^work> porn :D
        <triple> Porn.

