        #41736 +(138)- [X]

        <Lisa_W> ah, vevery woman's fantasy, 1,000,000s of mindless
        drones doing what she says....and they call her queen
        <Lisa_W> but we'll only want the one that acts like a jerk lol

