        #418422 +(1646)- [X]

        <AnGeLcAkE-14fFA>wanna cyber?
        <shiroi>sure
        <AnGeLcAkE-14fFA>ok, i move close to u
        <AnGeLcAkE-14fFA>i start rubbin your chest and unbutton your
        pants
        <AnGeLcAkE-14fFA>..
        <AnGeLcAkE-14fFA>hello?
        <shiroi>hmm? oh..er. Yea cool.
        <AnGeLcAkE-14fFA>u suck at this
        <shiroi>I suck? You're the one signing on to irc with your asl
        in your nick looking for a lovelife. You suck at life.
        <shiroi> You're probably not even a girl.
        AnGeLcAkE-14fFA has quit IRC. (Quit)
        <shiroi>Damnit, I'll never get a net gf at this rate :(

