        #42606 +(465)- [X]

        <Rossell1> weird thing happened last night
        <Rossell1> I had a dream where I was on IRC
        <Rossell1> and everybody kept saying potatoes
        <ASk> potatoes
        <Winquman> potatoes
        <Rossell1> :/
        <Phobius> Tomato

