        #428467 +(1002)- [X]

        <Dubious|Laptop> gotta go give a training session on Cisco. 
        lates.
        <{pdX}aldawg> isn't cisco a form of oil they sell at
        supermarkets
        <Dubious|Laptop> thats Crisco.  Its not often that you find
        someone who is both technology and culinary-impaired, but you
        have shattered that paradigm.
        * {pdX}aldawg has quit IRC (Quit: )

