        #43030 +(-12)- [X]

        <SouLjY> im rot netarded
        * SouLjY is away. [rescue rangers] Back in [27 min] Logging
        [On]
        <SouLjY> chip n dales owns all of u
        <maj> ...
        <PyRo_> =[
        <Pelleas> im going to go look at the water
        <SouLjY> :1

