        #43102 +(690)- [X]

        <LiaBacci> whats ur name lsd?
        <lsd> Ellesdee
        <LiaBacci> Ellesdee? is a female name? or a male one?
        <LiaBacci> anyway is a pretty name
        <lsd> thanks :)

