        #43242 +(663)- [X]

        <Angel> Not all chemicals are bad. Without chemicals such as
        hydrogen and oxygen, for example, there would be no way to
        make water, a vital ingredient in beer

