        #43885 +(6)- [X]

        <Resident0> when i was lil i put one of those square batteries
        on my tongue
        <Resident0> and it shocked me and made my tongue blister
        <Resident0> it owned
        <ranova> haha

