        #43910 +(218)- [X]

        <moku> It is difficult. People always want me to walk on
        water, but I can only do that when the water is frozen...
        <BobTheMilkman> heh, so THAT's how jesus did it, the tricky
        bastard

