        #44 +(846)- [X]

        <iMike> i remember in 8th grade health class we had some guy
        from a std clinic come in
        <iMike> and he was talking about porn mags
        <iMike> and some kid was like 'what about playboy?'
        <iMike> and the guy was like 'well some consider that to be
        more of a softcore magazine'

