        #44228 +(405)- [X]

        <Kurin> Whee new window manager
        <Kurin> http://kurin.d2g.com:3001/now.jpg
        * NinjaStu wonders...
        -> *nickserv* ghost kurin bloom
        * Kurin Quit (Killed (NickServ (Ghost: NinjaStu)))
        -Services.Aniverse.Com- [kurin] has been killed
        <NinjaStu> amazing
        <NinjaStu> THIS IS WHY YOU DON"T TAKE A SCEEN OF YOUR NICKSERV
        PASS
        * Kurin (~kurin@ip68-0-224-168.ri.ri.cox.net) has joined #
        megatokyo
        <Kurin> Well that was rude

