        #44305 +(494)- [X]

        * Joins: Niro77
        <Niro77> hi
        <Niro77> anyone here?
        <Niro77> ...
        * Niro77 yawns
        <Niro77> hellloooooo
        <Niro77> Am I talking to myself?
        <Niro77> you know.. the C in IRC means "chat"
        <@quake> and the IR means "shut the fuck up, we're idling in
        this ".

