        #447397 +(425)- [X]

        <@ping> my ex was Mennonite
        <@ping> well, is
        <Xolution> What the hell does being from Minnesota have to do
        with anything?
        <@ping> are you really that stupid?

