        #449083 +(732)- [X]

        <willo_sk> Wheee
        <willo_sk> My $100 tires are rockin
        <willo_sk> Another 50 for mount and balance tho :(
        <willo_sk> I suspect that they fucked up my alignment
        <willo_sk> Hosers
        <josh> willo_sk: are you no longer chaotic good?

