        #457504 +(518)- [X]

        [+Bobthefish] when your desperate for sex you shouldn't pass
        up a threesome
        [+Bobthefish] just close your eyes
        [+Bobthefish] actually don't, you might grab something you
        don't want to
        [@SnowPhaal] I couldn't cross swords with another man, not
        even by accident.
        [@SnowPhaal] It'd be like Ghostbusters..."Don't Cross The
        Streams!"

