        #45943 +(143)- [X]

        <Kasugai> Neu[Mann], so is C_Rdd working on a template, or
        should I?
        <Smerdyakov> Oh, yes, let's be careful not to DUPLICATE THE 10
        MINUTES OF WORK
        <Smerdyakov> That would RAPE THE UNIVERSE BY ITS VERY SEAMS OF
        EXISTENCE

