        #46093 +(344)- [X]

        <mhardyx> temporarily
        <mhardyx> left one is either going to be shortened or removed
        <mhardyx> and the right one is coming off so they can take the
        screw out
        <[Bardell]> IS HE TALKING ABOUT HIS BALLS!?!?!

