        #46559 +(613)- [X]

        *** Ugly_Stick is now known as Bueghty_Stick
        *** Bueghty_Stick is now known as Buehty_Stick
        *** Buehty_Stick is now known as Buhty_Stick
        *** Buhty_Stick is now known as Beuhty_Stick
        *** Beuhty_Stick is now known as Beugty_Stick
        <Beugty_Stick> how the hell do you spell beughty!

