        #47084 +(629)- [X]

        <Chris_Away> On a UK keyboard the dash, the space bar and the
        5 are all on the same key.
        <NapkinEater> YOU LIE!!!
        <Chris_Away> You5can't prove-that.

