        #47540 +(139)- [X]

        <@playstation201> check the device manager silly
        <[TSE]SPaZED> where's that at?
        <@playstation201> right click on My Computer, click
        properties, then click hardware, then click device manager
        .....
        <[TSE]SPaZED> im still looking for my computer
        <@playstation201> ok, then press and hold the windows key, and
        press the pause break key
        <@PSX_Cheatster> Oooo... ain't that fancy
        <@playstation201> impress at my hotkey skillz PSX_Cheatster?
        :-p
        <@PSX_Cheatster> Not really playstation201, I don't need to
        memorize silly hotkeys like that cause I'm smart enough to
        find My Computer...

