        #47583 +(170)- [X]

        <@nik0li> SANTA MONICA, Calif. (Wireless Flash) -- A woman in
        Santa Monica, California, is attempting to lose weight in a
        manner others may not be able to stomach -- an all-semen diet.
        <@nik0li> Starting December 1, a plump porn star named Kim
        Kelly hopes to lose between 10 and 20 pounds by spending 30
        days on a diet consisting largely of semen -- or as she
        prefers, "man juice."
        <@prence_> shit, ill eat my own man-juice if it will help me
        lose 30 pounds!

