        #47631 +(-100)- [X]

        <daenonok> thats pretty funny...d4n just icqed me that there
        have been like 48k quotes submitted to bash
        <daenonok> and less than 10k made it in
        <daenonok> that means theres 38k ppl who wasted their time
        submitting crappy quotes
        <daenonok> thats pretty funny

