        #47652 +(319)- [X]

        *** sCHrAnZeR has joined #jungle
        <sCHrAnZeR> ok is that Polish room ?
        <EllesDee> you mean  this  room?
        <EllesDee> yeah
        <EllesDee> we're all polish
        <EllesDee> but disguised cause no one likes us
        <sCHrAnZeR> czemu nikt nie lubi Was ?
        <sCHrAnZeR> :)
        <EllesDee> DISGUISE MAN!
        <EllesDee> speak english, people should think we're ordinary
        <EllesDee> otherwise the undercover will blow up and we'll all
        get k-lined
        <sCHrAnZeR> oh I didn't know
        <EllesDee> hmm..
        <EllesDee> gee
        <sCHrAnZeR> I'm not good in mIRC
        *** sCHrAnZeR has quit IRC

