        #483665 +(706)- [X]

        [The KaptKneeemo] I went to the recruters office stoned as
        fuck
        [The KaptKneeemo] he asked me how many times I had smoked weed
        [The KaptKneeemo] and I was like "TODAY??"

