        #484021 +(1150)- [X]

        britt: And that the only reason we PMS is because our uterus
        is screaming at our brain to go out, get fucked, and have a
        baby.
        britt: and it makes us angry.

