        #48684 +(289)- [X]

        <voyweiser> what's the record for the most blowjobs in one
        day? cause i think i broke it.
        <LlnK> how many guys did you give head today?
        <voyweiser> stfu whore. i guess i walked right into that one
        huh?

