        #49122 +(169)- [X]

        <DAnuba> omfg
        <DAnuba> gay pride just came to my house
        <C-rEs> ?
        <DAnuba> and asked us to join their cause
        <C-rEs> haha
        <DAnuba> well
        <DAnuba> i told them to fuck off
        <DAnuba> they called me a fag basher
        *later*
        <DAnuba> i'm going to a weight lifting convention tomorrow
        <C-rEs> heh
        <C-rEs> so you did talk to the gay pride guys!

