        #49195 +(193)- [X]

        <Ahriman> !google Killing children for the benefit of pig
        farmers
        <BuffyBot> GOOGLE : Canadian Coalition for Green Health Care (
        http://www.greenhealthcare.ca/workshop22-09-00.htm )

