        #49547 +(399)- [X]

        <@martini> my weed dealer, was drunk last night
        <@martini> and she started feeling me up
        <@rommel> lol
        <@rommel> did you advance?
        <@martini> i said "call me when you sober up"
        <@rommel> aw, you weren't lookin for some butt that night?
        <@martini> not at that very moment
        <@martini> shit was crazy
        <@martini> too many things going on at once
        <@kvm> u were chewing gum then?
        <@martini> har har
        <@rommel> HAHAHAHA
        <@rommel> owned.

