        #49849 +(411)- [X]

        Hunting Bounties: Where can I get a ps2 emulator?
        OOPRCT: from YNOS
        Hunting Bounties: Where is that
        Hunting Bounties: ?
        OOPRCT: it's a secret company
        OOPRCT: try searching on the programs called EKAF and SURIV
        OOPRCT: EKAF and SURIV has the YNOS emulator
        OOPRCT: DIPUTS also has it

