        #49879 +(150)- [X]

        #Linux on GamesNET
        * Topic is '2.4.19 stable/2.5.40 unstable || don't ask to ask
        a question...just ask it!'

        * Stumpy has joined #Linux
        <Stumpy> I have a mandrake question
        <Stumpy> mandrake anyone?
        <Rev`15th> read the topic
        <Stumpy> ok
        <Stumpy> later
        <Stumpy> idiot
        * Stumpy has left #Linux

