        #49884 +(477)- [X]

        Munktun: how was thanksgiving?
        Wahbuffet: missionary position
        Munktun: hahahahaha
        Wahbuffet: sorry wrong person
        Wahbuffet: pretend i didnt say that

