        #50129 +(367)- [X]

        <Kaloth> ah, if only there were a mystical place, where beer
        flowed freely from an ice cold source
        <Kaloth> and peanuts were free
        <Kaloth> and men of all ages could gather and talk about tits
        and sport
        <Kaloth> ah, if only.
        <Kaloth> wait a minute
        * Kaloth bbl. pub.

