        #50225 +(84)- [X]

        <cherno> what kind of a crazy keyboard is this
        <Matrix_McCloud> an old one
        <Matrix_McCloud> maybe i can find a pic of it
        <cherno> what company
        <Matrix_McCloud> 5001
        <Matrix_McCloud> ..i think
        <cherno> whoa
        <cherno> it was back when co.'s had numbers instead of names
        <Matrix_McCloud> hahah

