        #50521 +(193)- [X]

        <My`Albanian`Ass> why u miss me?
        <^hOTTIE^4^U^> yeh
        <^hOTTIE^4^U^> bAd
        <My`Albanian`Ass> how bad
        <My`Albanian`Ass> bad enough to masturbate urself infront of a
        mirror while wearing a face mask that looks like my face?

