        #50734 +(101)- [X]

        <kremlyn> I was in #atomicmpc, then I left because they are
        all gheybos (tm)
        <kremlyn> And he pm'd me and asked me to come back
        <kremlyn> So I said
        <kremlyn> [19:48] <kremlyn> Why? To watch a bunch of
        pre-pubescent CS playing    Overclockers talk about how much
        faster their computer is now that it's running at a 4 Mhz
        faster FSB, when for the amount of money they spent on a
        liquid-urine cooling system, they could have bought a faster
        box anyway?
        <kremlyn> And he quit

