        #50809 +(349)- [X]

        #natfans on GamesNET, 01 December 2002

        <dzee> want to try again sara
        <sara_sig> no
        <sara_sig> gay thing
        <sara_sig> too pissed off with it
        <dzee> why does it crash?
        <sara_sig> .
        <sara_sig> ^ see that?
        <sara_sig> That is a concentrated ball of rage
        <sara_sig> Refined hatred poured into one small dot
        <sara_sig> "why does it crash" is possibly the only question
        that can merit an outpouring like that
        <sara_sig> I simply cannot even be sarcastic about it
        <sara_sig> It goes way beyond that

