        #50909 +(26)- [X]

        <dlewis> anyone want to buy an iPAQ H3670?
        <RichiH> not really
        <RichiH> it has windows on it, after all :)
        <dlewis> you can install linux on it.
        <RichiH> hmm, right
        <RichiH> but it will still be a compaq :)

