        #51418 +(190)- [X]

        <NyseriA> i think i should inform you that i am totally naked
        at the keyboard.....and i just sat on a box of screws :
        (((((((((((((
        <Weebl> is your webcam on nys?

