        #51823 +(355)- [X]

        <Myst> It would, however, be funnier.
        <Myst> Since Canadians are funnier by nature.
        <WTM2K> just because we laugh at you doesn't mean you're funny

