        #52186 +(231)- [X]

        <Cyclonus> Fucking paper plate cut my finger!
        <Red_Sky> Cast it into the DARK corner of the basement!
        <MossadMan> Along with the fish heads and condoms.
        <Red_Sky> Condoms, why the hell would he have those?
        <Red_Sky> That's like Jesus buying waterwings.
        <Red_Sky> He ain't nevah gonna use 'em!

