        #52328 +(664)- [X]

        *** klaas-sinterkla has joined #photoshop
        <klaas-sinterkla> hellol
        <klaas-sinterkla> who knows the programm photoshop
        <@Anapaest> what kind of programm is it?
        <klaas-sinterkla> It's about websites n stuff
        <@Anapaest> better ask in #website-stuff then
        <klaas-sinterkla> k, thx
        *** klaas-sinterkla has left #photoshop

