        #52512 +(250)- [X]

        harleyb: we're not dumb like that up in canda
        harleyb: and we can also spell our countrie's name
        harleyb: and use proper everything
        harleyb: *country's

