        #525433 +(421)- [X]

        <Breserk> I love your humour :D
        <ErectuZ> I love your balls
        <Breserk> :/
        <ErectuZ> you seen Team America?
        <Breserk> Physically?
        <Breserk> Nope.
        <ErectuZ> oh
        <ErectuZ> then that miht have sounded a bit perverted
        <Breserk> Yes.

