        #52580 +(341)- [X]

        <anarch> i think I may assfuck the turks
        <anarch> i owe them
        <anarch> 2 centuries of occupation has made me bitter
        <Mr_Poppinfresh> dude, you're not Serbian
        <anarch> im roleplaying

