        #53186 +(513)- [X]

        <testify> i hate the CLI which i have been using for 5 dam
        years
        <testify> like i said, its the year 2003 not 1984
        <snaund> testify: umm, it's 2002 here
        <snaund> must be a timezone thing
        <testify> well its near 2003
        <snaund> testify: there's a special name for the year that's
        nearly 2003
        <testify> taht is?
        <snaund> testify: 2002
        <testify> ok

