        #53419 +(174)- [X]

        <Oliver> uni is too hardcore for me
        <Oliver> spent 2 days there
        <Oliver> could hardly walk
        <teles> lol :)
        <teles> that'll teach you to visit the toilets in the art
        school :p

