        #53451 +(-2)- [X]

        <Dave_The_Insane[depressed]> whats with all the netsplits?
        <Rodzilla> J0 MAMA
        <Dave_The_Insane[depressed]> o_O
        <Rodzilla> SHE'S SO FAT SHE SPLIT THE FREAKING INTERNET IN
        HALF
        <Rodzilla> AHAAHAHAHAHHAH

