        #53850 +(326)- [X]

        <Red_Avatar> Select [192kbps 44100Hz 03:53min] Mandy Moore -
        Only hope
        <Darth-Phenom> Mandy Moore!! ROCK ON
        <Red_Avatar> don't mock the music my girlfriend gave me!!
        <RaptorMkII> Sure, your girl friend.
        <RaptorMkII> IF YOUR GIRL FRIEND'S NAME IS KAZAA!

