        #542595 +(680)- [X]

        themadchef: they dont hire that often
        themadchef: i went there awhile ago
        iLOVEthat AliceD: and?
        themadchef: they werent hiring
        themadchef: lol
        iLOVEthat AliceD: thats a fucked up story man
        iLOVEthat AliceD: i liked the twist ending

