        #54287 +(646)- [X]

        <mannie77> Hi
        <Sexygirl89> hi
        <mannie77> m/f?
        <Sexygirl89> FFS, what would you think?!
        <mannie77> oh right
        <Sexygirl89> No girl would be stupid enough to use a nick like
        this!

