        #543 +(432)- [X]

        <MojoBag> [DaemoN_] She kicked my dog, and now i am going to
        FUCK her.
        * freeweed kix Daemon's dog
        * DaemoN_ fucks her
        <smcn> fucks who? your dog?

