        #551813 +(2232)- [X]

        Mike: I had a random thought in the shower just before
        Mike: I think I was still half asleep
        Mike: if you smacked a kid in the face with a bottle of
        johnson's no more tears, would it create beautiful irony?
        Hopper: ROFL

