        #55358 +(28)- [X]

        <garyttu> Dude you are not going to believe this... I played
        golf with my dad today and put my cell phone in my golf
        bag....well I started to play like ass and took a nine iron to
        the side of my bag....OOPS!!!!!
        <banshee> Do i need to explain what a dumb ass you are???
        LOLOLOL
        <garyttu> yeah- it was so funny but at the same time I am sooo
        pissed at myself
        <banshee> That is one of those things... where after you do
        it... you just know... that it was fate telling you to stop
        acting like a jack ass...

