        #55564 +(210)- [X]

        (During another round of mega splits on DALnet)
        <Guest51394> how do u get into the servers?
        <priz> you can't.
        <priz> if you walked into a McDonalds when the kitchen was on
        fire, do you think they'd take your order?

