        #55924 +(590)- [X]

        * Cassa gets naked and covers herself in blood from her
        missing fingernail
        <utopian> "It looks like you're writing a letter"
        <@DumHed> ok utop that is officially the funniest thing you've
        ever said

