      #5597 +(854)- [X]

      <Elfin>
      lkmwclldsldldldldldld,e,e,e,e,e,,e,e,e,e,e,,e,e,e,e,e,,e,e,e,e,e,e
      ,e,e,e,,,,eee,e,olwowowoowolsalslslsllslslslslslslllsllsllsllslls
      lsls
      <Elfin> That was me playing keyboard drums.
      <memo> Rock on.
      <Elfin> You know it.

