        #56037 +(277)- [X]

        <Murr> I received a fascinating insight into govt operations
        today
        <drm> hows that?
        <Murr> ordered some maps from the california geological survey
        2 weeks ago
        <Murr> received them 1 week ago
        <Murr> and got a call today from a lady who had problems
        reading my CC#

