        #56053 +(0)- [X]

        <Terra-ist> i need roms
        * Terra-ist wants a good rom site
        <Terra-ist> just gimme a good rom site and ill shut up >=[
        <lea_notwriting> Ever tried Google?
        <lea_notwriting> I heard it has GREAT roms.

