        #5608 +(220)- [X]

        <deimos> too bad I didn't beat up quatoria
        <deimos> I'm his puppet apparently
        <deimos> since he has his hand up my ass all the time
        <deimos> plz to be removing that btw

