        #56194 +(314)- [X]

        <Winkingdog> Cute toll collector At the Harbour tunnel this
        morning.  Blond,  young and very cute.  I'm gunna ask her
        out..
        <Winkingdog> I wonder how many round trips Ill have to do
        before I get the chance  :)
        <DD> Shit!!! She's already costing you money!:-)

