        #561902 +(830)- [X]

        <Klaatu> I logged into the admin account in a comp at my uni.
        <Klaatu> I drew the word "Owned" and set it as the wallpaper.
        <Hl1> Meh, that's good enough to hang with us. >.>
        <Klaatu> 1337 :D
        <Hl1> You just lost your cred.
        <Klaatu> Aw fux0r. :(
        <Hl1> And slowly going into the negatives...

