        #56554 +(1236)- [X]

        <Asmodeus> I hav3 to g3t a n3w k3yboard off my par3nts, brb.
        <Kur0Tenshi> Why?
        <Asmodeus> Th3 k3y b3tw33n th3 W and R k3y is brok3n.
        <Kur0Tenshi> What keys that?

