        #57041 +(231)- [X]

        <MadHatt3r> if you were around men 24 hours a day, for quite a
        few years
        <MadHatt3r> the idea of hetro and homosexuality would go
        flying out the window
        <Jeeeeebus> MadHatt3r: remind me not to spend long periods of
        time with you..

