        #575855 +(1759)- [X]

        donchongo: i wonder what possesed some one to invent play-doh
        and silly putty
        Wildfire: poop dries out to fast
        donchongo: that really put a screeching halt to my thought
        process

