        #5785 +(67)- [X]

        <scar_> what was the fastest vehicle in ww2?
        <Hatter> ?
        <Hatter> Jet
        <Hatter> ww2 saw the first jet engine
        <scar_> no, silly
        <scar_> a jew on a bicycle through berlin
        <Hatter> :\

