        #578788 +(1076)- [X]

        <Warmaster_Horus> But some of the stuff you can do with mayo
        is good
        <NiTessine> Yes. Like assassinations.
        <Mithran> You assassinate people with mayo?
        <NiTessine> Nobody ever suspects mayo.

