        #5808 +(430)- [X]

        <GreetServ> [A|exander] l44t
        <notrino> laat ?
        <A|exander> yeah
        <A|exander> its one better than l33t
        <notrino> err..yeah better than
        <notrino> l33t :D
        <A|exander> you're getting it
        <notrino> than , why not 99 ?
        <A|exander> small steps man, small steps

