        #58080 +(251)- [X]

        <jalist> im giving lin what i always give her
        <jalist> my knob with a ribbon round it
        <jalist> maybe one day she'll actually want it
        <kuhndog> kind of a small gift dont ya think jalist?

