        #58121 +(320)- [X]

        * LordLinus has returned.. back again ..[gone/46d 16h 43m 32s]
        * LordLinus is gone.. autoaway after 15 min [cyp/lp]..
        <nester> and so it begins again...

