        #58748 +(498)- [X]

        <@_aa_> I need more friends
        <@_aa_> good ones
        <@_aa_> instead of bad friends
        <@_aa_> but I guess there's no such thing as bad friends
        <biVulate> aa: join a fraternity :P
        <@_aa_> I said friends not people who will super glue my penis
        to a milk crate when I'm asleep

