        #596241 +(1493)- [X]

        <Yaksha> I asked my brother what he wanted for Christmas.
        <Yaksha> He said he wanted cold hard cash.
        <Yaksha> So that's exactly what I gave him.
        <Yaksha> I got 20 $1 bills, soaked them in water and put them
        in the freezer.
        <Yaksha> When he got it, it was just a block of green ice that
        took a day to thaw.

