        #597870 +(1207)- [X]

        <Blowjob-Queen> Is she still internet dating him?
        <Fizzly> They were in the middle of a "harsh break up" last I
        remember.
        <Fizzly> Text was flying so fast.
        <Fizzly> Emoticons ran wild.

