        #598987 +(1638)- [X]

        <Sceptic> I am not going to argue mideast history and politics
        here. I have better, more useful things to do--such as
        draining the ocean with a spoon.
        <David> Just out of interest, where will you be putting the
        water?

