        #601337 +(1227)- [X]

        <sev> so I was walking through the city with a bunch of roses
        in one hand and a bag of potaotes in the other, and I had
        something like five people stop me and ask if I was going to
        propose to an irishman 8\

