        #603526 +(1923)- [X]

        <diego>: yea
        <diego>: he says he takes four hours to masturbate
        <nate>: O.O
        <nate>: now THAT'S endurance
        <nate>: well, not endurance
        <nate>: endurance implies something admirable... it's more
        like... "stamina"
        <diego>: well id like to see YOU stroke it up and down for
        four hours
        <diego>: wait
        <diego>: wait
        <diego>: no
        <diego>: damnit
        <nate>: ...
        <nate>: wow, and i even got it in writing

