        #60822 +(415)- [X]

        <Hinkey> shrooms dont give flashbacks
        <Hinkey> acid does
        <Threeboy> you now what has the worst flashbacks?
        <Threeboy> mother fucking 'NAM man.

