        #60997 +(220)- [X]

        <Godsey> I want to beta test EverQuest 2 and get paid for it
        <etrigan> oh i'd do that but so would tons of gamers :/
        <Godsey> I'm highly qualified :)
        <Godsey> I am fat and have BO

