        #613541 +(1059)- [X]

        USnip: today in english class
        USnip: the teacher was discussing a thesis statement about
        close friends
        USnip: and she was like
        USnip: "well what do you want from a close friend?"
        USnip: and one guy yelled out "well is it a male or a female"?
        USnip: and she snapped back "I'm sure it doesn't matter to
        YOU"

