        #615836 +(134)- [X]

        Sexay Prof Long: Opera 10 is going to require a resolution of
        1280x1024
        Sexay Prof Long: it will contain a 1280x1000 ad
        Sexay Prof Long: leaving you 24 pixels of vertical space for
        internet browsing
        Gothic: haha
        Gothic: It'll open a whole new avenue for 1280x24 porn

