        #616678 +(27)- [X]

        Nobdepot signed on at 4:00:27 PM.
        VenuSparkle85 (4:00:37 PM): hey
        Nobdepot (4:00:39 PM): hey
        VenuSparkle85 (4:00:41 PM): brb
        Nobdepot (4:00:54 PM): wtf??? you messaged me just to say
        that?]
        Nobdepot (5:43:35 PM): ...

