        #6167 +(182)- [X]

        <Sabre> Anyone know what's going on X Files?
        <AtmaWeapon> if anyone spoils anything I'm gonna kickban them.
        <l0bster> Then, they get a tip, that some guy named
        AtmaWeapon's mom, was
          some kinda funky werewolf. So they drove to her house with
        3metric tons
          of tranq, and shot her fat ass. Repeatedly, until she passed
        out. But
          the slobber from her mouth floods the room and kills
        everyone.

