        #62036 +(219)- [X]

        <MosH> The girl was a slut.
        <MrSelfDestruct^v26> loose as a goose eh
        <MosH> yeah I had to strap a 2 by 4 to my ass
        <MosH> so I didnt fall in that shit

