        #62112 +(161)- [X]

        onkeybutt87: I heard this commercial on the TV
        onkeybutt87: from a door-store
        onkeybutt87: and the guy refers to it as an "Entry system"
        Changa177: lol
        onkeybutt87: gotta be politically correct

