        #62557 +(268)- [X]

        <LayMon> PH33r me
        <themage> AAAAHHHHHHHHH!
        <LayMon> woot
        <LayMon> i am pheered
        * LayMon (c6c2@65.119.99.99) Quit (Read error: 54 (Connection
        reset by peer))
        <themage> oooh, I though you said "PEER me" ... my bad

