        #626094 +(565)- [X]

        <JRJohn> At my high school we had a high school cop who would
        walk around proudly displaying his 9mm glock.
        <JRJohn> also, he had about 10 boxes of ammo in his desk.
        <ZoFreX> that's a little unsafe
        <ZoFreX> ammo should be locked up
        <JRJohn> WHY would you need more ammunition than there are
        kids in the school?
        <ZoFreX> doubletap?

