        #630859 +(475)- [X]

        <Shard>: I think my GF is pregnant...
        <Sapphon>: You should pimp her out to cover the abortion, she
        cant get pregnant twice ;).
        <Shard>: ....

