        #631627 +(603)- [X]

        bananza: i feel bad for ugly people
        rotino: empathyy
        bananza: yeah
        bananza: like a lot
        rotino: look up empathy
        bananza: oh fuck u

