        #636447 +(1881)- [X]

        <mmiikkee12> XD, i just got the best spam message ever
        <mmiikkee12> "Make $$$ Fast"
        <mmiikkee12> "Hold down your shift and 4 keys at the same
        time. In about a second you will be making $$$ fast."

