        #643744 +(1272)- [X]

        Helene: Someone attacked Pearl Harbor?!
        Helene: When?!
        Helene: My Cousin is stationed there
        Helene: omg omg omg
        Helene: Was it bad?
        Pigtail II: Helen we're talking about WWII

