        #643785 +(486)- [X]

        <hobosexual> i reckon im going to hell
        <Caedes> I know how to tell if someone is gong to hell or not.
        <Caedes> Q. Are you religious ?
        <hobosexual> yes
        <Caedes> A. You're going to hell
        <hobosexual> makes sense.

