        #643852 +(420)- [X]

        <Warfle> So get this.
        <Warfle> I'm getting my car inspected and theres this girl in
        line ahead of me.
        <Warfle> Pushing her car.
        <Warfle> "I don't think she's going to pass inspection"

