        #6478 +(261)- [X]

        <HevyD> yea, one time I got caught masturbating and I yelled
        at my dad telling him to go get help cause I had him caught
        and I needed backup, boy that was akward

