        #66208 +(464)- [X]

        <Firemoth> Weird, My cat's got conjunctivitis in one of his
        eyes and i have to put like a jell type cream on his eye. He
        doesn't mind me puting it on there one bit, He just sits back
        and lets me squeeze it on. Doesn't flinch or anything.
        <Agg> dude, he's been dead for 2 weeks now.

