        #66352 +(433)- [X]

        <Jens> JESUS WHAT THE FUCK
        <Jens> Spam mail from goatporn.com >_<
        <Liam> Jens
        <Liam> There are only lesbians making out
        <Liam> On Goatporn.com
        <Jens> Oh.
        <Jens> Whew.
        <Jens> ...
        <D> Leave it to Liam to go there and actually come back
        disappointed.
        <Jens> Why the fuck did you check that?

