        #66350 +(402)- [X]

        *** SyKnight (SyKnight@mctn1-3751.nb.aliant.net) has joined
        the channel
        <UrbnLgnd> :)
        *** SyKnight has left the channel
        <UrbnLgnd> i guess I have an ugly face

