        #665 +(434)- [X]

        <reptile-> i like to masturbate
        <reptile-> heh
        <reptile-> I remember along time ago
        <reptile-> when I was like 8 er smthn
        <reptile-> my friend was like, "Gay people masturbate." or
        something
        <reptile-> and I was like, "ew.. I'm never doing that!"
        <reptile-> !#@$

