        #6695 +(214)- [X]

        <BlznAzn> i find it kinky to use my cock as a probe tool to
        remove lint between the toes of a foot thats been inside a
        work boot all day
        <pagan> you must like to have Athlete's Cock

