        #677064 +(459)- [X]

        <+Ne0v001> I was playing Halo 2 yesterday
        <+Ne0v001> my friend was over
        <+Ne0v001> and I perfectly jumped 3 obstacles
        <+Ne0v001> clicked on my invisibility
        <+Ne0v001> and slipped by all the guards
        <+Ne0v001> and mumbled
        <+Ne0v001> "I don't play this game too much"
        <+Ne0v001> and he was like
        <+Ne0v001> "Who are you trying to convince? Me or you?"

