        #6791 +(388)- [X]

        <Kelly> i know a guy who was so facinated w/ tits he take two
        condoms, fills them w/ water, ties them together, slings them
        over his shoulders and wears them in a bra
        <crazym> Kelly: you need to get out less.
        <Kelly> heh!

