        #686031 +(540)- [X]

        <Nano> Is it "cheating" or wrong to mastubate over another
        chick when your married?
        <Syco> thats like asking is it rape if they smile?
        <Nano> wtf... no its not :/

