        #690961 +(530)- [X]

        <Uki> i don't feel much different, this whole being 21 thing
        <Aphelion_> in that case, you did it wrong. go back and try
        again, this time with more vodka.

