        #694 +(316)- [X]

        <sparc5> how does a guy become a porn star?
        <sparc5> that's what I wana find out
        <Rhelic> sparc5: have at least 8inches and 4inches girth
        <Rhelic> sparc5: and you usually pay them to be in the first
        few
        <eggo> or family business
        <sparc5> Rehlic: pay???
        <thinkmad> may you all catch this horrible disease and suffer
        <Rhelic> sparc5: its easy to find any guy to fuk some hot pron
        star
        <sparc5> damn

