        #698150 +(573)- [X]

        <Dave> Well. I'mma go shower and then go pick up my friend
        from jail.
        <Dave> I'll be back later.
        <Shadowpillar> ask him how big his anus is
        <Dave> He's a big dude, no one's going to fuck with him.
        <Shadowpillar> ask him how many other people he's cornholed
        <Shadowpillar> lol
        <Dave> He's been in jail for roughly 5 hours.
        <Dave> And he has a girlfriend.
        <Dave> I'm betting on a grand total of six.

