        #7067 +(20)- [X]

        <Naivete> the Christian Culture Club scheduled Jesus Day
        <Naivete> and the Gay Culture Club scheduled Gay Day on the
        same day
        *** Naivete was kicked by Kash (...)
        <Naivete> and harassed the christians.

