        #7083 +(483)- [X]

        <slog> Is Susan Sarandon too old to be considered "dooable"?
        <Joe_> Yes.
        <Kiler> I'd still do her
        <Rain|Joker> She's borderline
        <slog> that's 1 yes, 1 no, 1 maybe
        <Pander> Desperation is the key factor.
        <Kranrev> I'd say yes, but it would be creepy
        <Lum_> Ben Franklin said of older women: "They know what they
        are doing, and they are eternally grateful".
        <Lum_> in case you don't know your history Franklin was pretty
        much a slutpuppy

