        #71176 +(695)- [X]

        <@ANARCHEY> LOL da_rut@hotmail.com intentionally sent me a few
        mails with a virus in it.. luckily my Norton picked it up...
        now i was gonna subscribe his e-mail address with some gay
        porn sites... first site i tried he was already subscribed to
        :P

