        #714584 +(442)- [X]

        <Eir|food> Y'know, Taco Bell's "Think Outside The Bun" seems
        perfect for a hilarious anti-gay slogan.
        <Eir|food> "Don't put your meat between buns!  Get it in a
        taco instead!"

