        #714536 +(765)- [X]

        <JimLad> night War_Pig
        <JimLad> you cockjockey
        <War_Pig> pardon?
        <Trippledence> he said you ride cock War_Pig
        <joeh> hes saying you ride cock War_Pig
        <[Marcus]> he said you ride cock War_Pig

