        #71995 +(1202)- [X]

        <Dezmo> man, a coworker of mine had a blind date, so I offered
        to call him right after he met her so if she was ugly he could
        act like some emergency had come up and had to go
        <Dezmo> so I call, and she answers the phone "is this the
        emergency phone call in case I'm a skank?"

