        #7200 +(557)- [X]

        <zhix> logicbox - sarenna lee rocks you.. she's just so..
        bountiful!
        <zhix> I could literally get lost in her bosom.
        <zhix> I'd accidently drop my bagel in there and end up
        falling in..
        <barkode> barkode: JOSH, ARE YOU OKAY DOWN THERE? zhix: I'M
        FINE. GO AWAY. barkode: I'LL GET HELP. zhix: DON'T YOU DARE
        FUCKER. LEAVE ME HERE.

