        #721138 +(727)- [X]

        <SierraSonic> the internet is made up of 3 things
        <SierraSonic> 99.9% porn
        <SierraSonic> .1% violence
        <Crash2> and 0% of?
        <Marcx> 0% intellect

