        #7304 +(160)- [X]

        <@Tezz[a]> My Daddy got a paper shredder for Father's Day
        <@Tezz[a]> Guess what's happening to all my school notes? >:D
        <@Giess> We got ours a barbecue.

