        #7330 +(388)- [X]

        <Elenkis> so we're still at +3 huh?
        <Domino> guess so...
        <Elenkis> man, this is sadder than checking hotornot.com to
        see if my rating has gone up

