        #737107 +(597)- [X]

        <s1um>after meeting a few girls on myspace, i think they need
        to put a warning on the site that says "objects on screen are
        larger than they appear"

