        #737318 +(969)- [X]

        <Python> Did you fall from a shooting star?
        <silly_girlie> hehe
        <silly_girlie> ahh sure why not
        <GLT23> because your face looks like it slammed into earth at
        1500 mph? is that the end of the pickup line?

