        #742204 +(418)- [X]

        <@dekkon> ive got an appointment at the eye doctor on the 13th
        <@dekkon> finally going to get contacts
        <@terminal_> contacts are a pain in the ass
        <+jmx> terminal they go in your eyes

