        #7435 +(524)- [X]

        <Owyn> I can't double click on a folder to open it.
        <Owyn> THat's not a good thing.
        <Phuser> keep the chat running man JUST KEEP THE CHAT RUNNING!
        *** Owyn has quit IRC (Read error: Connection reset by peer)
        <Phuser> damn
        * Phuser throws his hands in the air
        <Phuser> WHY GOD, WHY?!

