        #744067 +(554)- [X]

        <slashdotuser> I still think the only real way to communicate
        with outlying civilisations properly will be with supernovas.
        <slashdotuser> Though, only one message could be send - "Help
        our sun is blowing u^&"%£%^&!*(())[NO CARRIER]

