        #74601 +(229)- [X]

        [20:21] <cooldaw13>  2nd Hint: 176*   30.0 secs & 12 Points
        Remaining
        [20:22] <cooldaw13>  3rd Hint: 176*   15.0 secs & 6 Points
        Remaining
        [20:22] <StealthStalker> 1760
        <StealthStalker> 1761
        <StealthStalker> 1762
        <StealthStalker> i give up
        <cooldaw13>  Times up!  The answer was ->  1763  <-
        <StealthStalker> OMG

