        #7467 +(198)- [X]

        <tris> all the tech contact email is signed "MFN Corporate
        Communications" now
        <tris> maybe they are the ones running the routers
        <neruaL> that would imply that a) they were running and b)
        someone had control
                 over it

