        #748074 +(2144)- [X]

        <Fuzion> research has shown that men are less likely to
        attempt suicide, but more likely to succeed.
        <Kadaj>  it's because they tend to use guns, while women use
        things like sleeping pills.
        <Fuzion> that just pisses me off.
        <Fuzion> the last thing you are ever going to do... would it
        kill you to do it right?!
        <Fuzion> ...
        <Fuzion> wait

