        #748763 +(457)- [X]

        <BillyBob> napolean was 5 feet 7
        <BillyBob> that i did not know
        <NobleArc> Napoleon
        <NobleArc> It's just francais. Spelling en francais isn't that
        hard.
        <BillyBob> good to know you can catch typos in multiple
        languages
        <BillyBob> almost as helpful as the microsoft office paperclip

