        #754652 +(523)- [X]

        <Flac> Ahh, IRC, Kind of like downloading porn on limewire,
        When you open it up, your never quite sure what your going to
        see, but odds are good that it will scar you for life.

