        #75832 +(1088)- [X]

        <+nexx> im thinking of quitting university to spend my life
        reading every quote on bash.org, quote this on bash so when im
        30 ill read this and remember where my life went wrong.

