        #759758 +(1951)- [X]

        dantose: Do u get a trophy 4 it????
        rocker576: It occurs to me that typing "u" instead of "you"
        and "4" instead of "for" saved you 4 (not "for") keystrokes.
        Typing "????" instead of "?" used 3 keystrokes plus the use of
        the shift button for a total of 4 keystrokes. Thus, you have
        saved no effort whatsoever by kicking the English language.

