        #764 +(525)- [X]

        <DigDug> looks like microsoft is extending http
        <DigDug> HTTP 403.9 - Access Forbidden: Too many users are
        connected
        <DigDug> Internet Information Services
        <OxOO> that must be visual http++

