        #764093 +(367)- [X]

        <SketchCow> I've been asked to shut down 7 servers, all of
        them roughly 10 years old.
        <SketchCow> I've been making them play taps before turning off
        permanently.

