        #764292 +(1398)- [X]

        Magna Carta: Being in Alexa's top 1000 says a lot for any
        site...
        Motley: Related: In walmart today, it was pretty packed
        Motley: and my nephew (11) is going to get some icees, he gets
        ready to turn left out of electronics
        Motley: and he goes 'dude, what flavor?'
        Motley: I shouted 'MOAR MUDKIPS' (aka blue)
        Motley: Then this is what I hear..
        Motley: Far left: 'KILL IT WITH FIRE!'
        Motley: Far right: 'NO U'
        Motley: Behind: 'DO NOT WANT'
        Motley: and then god bless 'em, the guy standing *right* next
        to me goes 'shut the fuck up btards!"
        Magna Carta: ...
        Magna Carta: You live in EKY?
        Motley: ...yeah
        Magna Carta: OSHIT

