        #7682 +(154)- [X]

        <landen:#math> It was started by Carl Sagan. For astronomers
        there is not a lot of difference between 10^9 and 10^12.
        <asphyxia:#math> yeah, only three zeros

