        #7866 +(373)- [X]

        <Danzo> damn big txt file
        <Danzo> B I G <peaches>
        * peaches watches notepad crash
        <peaches> should've zipped it up
        <Danzo> heh..story of my life =]

