        #79069 +(37)- [X]

        <Astrakhan> What determines the silica content?
        <J>The silicon content in the sand/soil/rocks around it XP
        <Astrakhan>Ah. XD
        <J> technically silica is silicon. only smaller pieces
        <Astrakhan> So, if I steal Pamela's implants, put sand in
        them, and expose them to fire, I can get breast shaped glass?
        <J>no no no. SILICON. not silicone
        <J> Difference
        <Astrakhan> Oh.
        <J>XP

