        #80648 +(83)- [X]

        <+Sasuke_Uchiha> Do you know how much beer I've had
        today...WAAAAAAAAAAAAY to much so if I seem dumber then suaul
        thats wy
        <+MegamanX2K> Underage drinking
        <+MegamanX2K> it only kills brain cells that were never there
        in the first place
        <+MegamanX2K> Sasuke=Poster Child

