        #8065 +(934)- [X]

        <biatch> who the hell are you gnostic
        <gnostic> i am your god damn nemesis
        <gnostic> any other questions?
        <Madeleine> what are you wearing?

