        #8154 +(193)- [X]

        <Savant> heh you guys read halfrobo's post on lums boards?
        <Kiler> I like his posts backing liet up on her "DAOC IS
        SEXIST CAUSE THE WOMEN SIT LIKE WOMEN AND IT"S A STEREOTYPE!!!
        "
        <CrashCat> daoc is sexist because you can fist zombies!
        <Kiler> that's not sexist...both sexes can do the zombie
        fisting
        <CrashCat> oh yeah

