        #8170 +(404)- [X]

        <Damarr> Theres a topic on my TV newsgroup entitled "I can't
        get it up". Do I dare enter?
        <Naivete> NO
        <r0gue> go for it
        <Damarr> Phew, he was talking about a satellite dish

