        #81848 +(235)- [X]

        <prof_barney> hey ryan, whats up dude?
        <necrophiliac> nuthin
        <sw33t_girl> you guys know eachother?
        <necrophiliac> yeah he's my sister
        <prof_barney> no we dont know eachother we just fuck...

