        #81861 +(193)- [X]

        <Gwynidon> OMG! MY SISTER HAD A BOYFRIEND AND I DIDN'T KNOW
        ABOUT IT
        <Morni> LOL
        <Jakeb> I swear, I didn't know she was your sister
        <Jakeb> >>
        <Jakeb> <<
        <Jakeb> reflex....
        <Jakeb> ^^;

