        #81914 +(53)- [X]

        <Mr_Milkman> i just found some metal shavings and shredded rim
        tape inside my wheel
        <Mr_Milkman> i've no idea why i didn't get puntures
        <Mr_Milkman> time to go buy some rim tape i think
        <olly> heeeheeheee "rim tape" heeheehee

