        #82074 +(222)- [X]

        <Chu-Chu-Rocket> dole's making it really hard for me to keep
        my IRC window open when my mom walks by
        <Foobar> just /clear
        <Chu-Chu-Rocket> yeah, but that looks suspicious
        <dole> dude
        <dole> she just cut off the second rapist's dick
        <dole> and left him to bleed in the bathtub
        <dole> and he bled to death
        * Chu-Chu-Rocket clears.

