        #82192 +(648)- [X]

        <^Spike^> I just realised
        <^Spike^> These new coke cans have 'REVOLUTION!!!' written on
        them.
        <^Spike^> DAMN COMMUNIST SOFT DRINK
        <^Spike^> It also has 'You know you Want it' written on it.
        <^Spike^> That's a whole lot creepier.
        <^Spike^> So my can is a communist and a rapist.

