        #8246 +(117)- [X]

        <Ookey> now, I wonder what would be said if I said that all
        guys are bi.
        <JtHMx> *shrug* find out
        <BathTub>  I think jthm is getting confused with 'all men want
        chicks to be bi'
        <JtHMx> see, bath is clearly just gay, rather than bi

