        #831403 +(1396)- [X]

        * Woussie is now known as You
        * You have been disconnected from the server. Please
        reconnect.
        * [Roy] has quit IRC (Read error: EOF from client)
        * Blue_Dark has quit IRC (Read error: EOF from client)
        * Blue_Dark has joined #RSR
        <You> xD
        * [Roy]|f2p_again has joined #RSR

