        #83489 +(2693)- [X]

        <Luigi30> someone ping flood 127.0.0.1
        <Luigi30> he keeps trying to hack me
        <Luigi30> nm
        <Floach> This, folks, is why Mario always gets the Princess.

