        #835631 +(694)- [X]

        ShaZam: been here nig
        ShaZam: except for my cell phone contract expired and i havent
        gotten a new one yet
        Serrin: Who the FUCK did you think you were talking to?
        ShaZam: oh wrong IM tab
        Serrin: "nig"? You know you're a white kid who plays WoW all
        day right?
        Serrin: You going to load up your 9 and go defend your turf at
        the mall from the bloods now? I hear they're moving on the
        yogurt stand...

