        #8376 +(567)- [X]

        <Rach|Dressing > i just had the yummiest shower
        <Rach|Dressing > it was nice and hot
        <Fentom > ....damn it people prove that your hands ARE ON THE
        KEYBOARD after that comment

