        #838044 +(474)- [X]

        <deitarion> I've always been the "mind is more important than
        looks" type and all the girls around here are idiots.
        <pewbert> deitarion, same here, but idiot pussy feels just as
        good as smart pussy

