        #84108 +(192)- [X]

        <KANG> hey...shut up?
        <Dinjack> Oh, wait, hold on, my pizza just came, pepperoni
        with blow me.
        <KANG> that sounds like quite a pizza
        <Dinjack> You don't wanna know about the free breadsticks,
        then

