        #84328 +(129)- [X]

        <AnBolb> I know this girl who's really sweet and nice and
        pretty and everything so yesterday I wrote a story about how I
        threw her off a balcony for a laugh, but then I felt bad and
        deleted it. True.

