        #846915 +(3266)- [X]

        <Guillotine>: The problem with being Democrat is that if you
        vote for Obama, you're sexist. And if you vote for Hilary,
        you're racist. Its easy being a Republican. No matter what
        you're retarded.

