        #85232 +(106)- [X]

        <das_das> uhhh god..eww...argh....somehow my playlist just
        rolled around to creed
        <das_das> wtf do I even have creed on my comp :P
        <ApoIIyon> i have creed on mine
        <ApoIIyon> they..are..okay if u take away the whole.. WE FUCK
        JESUS every night part
        <das_das> dude creed is like eating a fine meal, vomiting,
        eating the vomit, and vomiting again

