        #8535 +(106)- [X]

        <BathTub> isn't that your homepage JtHM?
        <JtHM> no, mine is www.bathtubsdenofaggotry.com
        <BathTub> ah yeah that shrine site you made
        <JtHM> worshipping the gayest man alive

