        #86683 +(476)- [X]

        <Resident_Redneck> The Canadians commited three warships, 1000
        soldiers, and 10 tanks to the war effort...but due to the
        exchange rate, it works out to be a mountie, a moose, and a
        flying sqirrel.

