        #8669 +(4)- [X]

        <SDGR406> I'll send you some of my worn panties
        <SDGR406> will that work?
        <|Spanky|> i need womens
        <|Spanky|> men dont get me off anymore
        <|Spanky|> i want hair though
        <|Spanky|> those are like finding a treasure
        <|Spanky|> finding a pube on a this week's stolen pair is like
        having a goose that lays the golden egg

