        #873382 +(3565)- [X]

        <arkan> You know, you really ought to have a bra with 403:
        forbidden on it.
        <Labyrinth> And you really ought to have a pair of boxers with
        404: not found.

