        #875125 +(145)- [X]

        <plot> like they think somethings wrong with being gay
        <plot> so they join the preisthood to try to combat it
        <plot> but give into their urges anyways
        <plot> and their urges end up all over the face of a 12 year
        old alterboy

