        #8752 +(446)- [X]

        <Linguica> do you even know what facetious means
        <pickle_hammer> yeah I am facetious
        <pickle_hammer> all the way
        <pickle_hammer> I go to facetious parades and stuff

