        #881642 +(1262)- [X]

        <RAD_ED> ...
        <RAD_ED> their making a REAL obama coin
        <RAD_ED> it looks retarded
        <Shark500> is it made of chocolate?
        <RAD_ED> lol

