        #89980 +(270)- [X]

        <HungSolo> goin with xp
        <HungSolo> never done linux so i dont wanna screw around with
        somethin i know nothin about
        <Nemephosis> like girls?
        <tdh> LOL

