        #916582 +(2172)- [X]

        (omfg): whats the most sensitive part of a persons body when
        they are masturbating ?
        (TypoKing): idk
        (omfg): their ears
        (omfg): listening for ppl coming home

