        #942468 +(46)- [X]

        <DragnFly> You know, what we need is a room of all american
        chatters. Since people are always quiet on IRC anyways, we can
        call it "American Idle" :p

