        #9547 +(654)- [X]

        <Tharivol> once I had to write something on the computer on
        paper..
        <Tharivol> i hit ctrl-c then...
        <Tharivol> my brain sorta got jammed in neutral

