        #961513 +(141)- [X]

        <xxx> There's apparently some Mexican restaurant somewhere in
        Europe that has the slogan, "Mexican food so authentic Donald
        Trump built 4 walls around it."

