        #96244 +(140)- [X]

        * Mas_Tnega decides to bring a friend in here
        [1718:49] * sibn is now known as Tnegas_Friend
        [1718:51] * Tnegas_Friend is now known as sibn
        <Mas_Tnega> sibn: My friendships are usually shorter than that
        <coolsi> less than 2 seconds?
        <coolsi> you must be a really big social reject
        <sibn> my friendships are usually shorter than my penis
        <Mas_Tnega> sibn: They don't exist?
        <sibn> Mas_Tnega: precisely

