        #97927 +(142)- [X]

        <Gav> Freshly reinstalled computers are a bit like a pair of
        new shoes - you're happy that you've finally got a new pair,
        but they're awkward to use for a little while :-)

